<svg xmlns="http://www.w3.org/2000/svg"
     width="300" height="100" viewBox="0 0 300 100">
  <text x="0" y="40%" style="font: 18px sans-serif; inline-size: 250pt;">• • •</text>
  <text x="0" y="60%" style="font: 18px sans-serif; inline-size: 250pt">• • ⎯ •</text>
</svg>
